{
  "project_info": {
    "project_number": "661393237314",
    "project_id": "authenticationako",
    "storage_bucket": "authenticationako.appspot.com"
  },
  "client": [
    {
      "client_info": {
        "mobilesdk_app_id": "1:661393237314:android:b16e9015f5315f0dda94db",
        "android_client_info": {
          "package_name": "com.example.authentication"
        }
      },
      "oauth_client": [
        {
          "client_id": "661393237314-3iaq7r38auaja9glmpnlsllfaqsinthe.apps.googleusercontent.com",
          "client_type": 3
        }
      ],
      "api_key": [
        {
          "current_key": "AIzaSyA6r8QwLz77BstUAYPyjHoTY5dML2Zn9so"
        }
      ],
      "services": {
        "appinvite_service": {
          "other_platform_oauth_client": [
            {
              "client_id": "661393237314-3iaq7r38auaja9glmpnlsllfaqsinthe.apps.googleusercontent.com",
              "client_type": 3
            }
          ]
        }
      }
    }
  ],
  "configuration_version": "1"
}